Inductive Sensors;tcm:18-17186-8;tcm:18-8096-2;;;;;;;;;;;;;;;;;;;;;;;;;;;;;;;;;;;;;;;;;;;;;;;;;;
generic \ name;generic \ statcode;generic \ longitem;generic \ shortitem;generic \ occode;generic \ seconditem;generic \ discfamily;generic \ family;generic \ accesoires;generic \ new;generic \ stock;generic \ hide;generic \ subselect;generic \ subselectable;type;size;length;;distance;shielded;mode;;;output;voltage;;;wiring;;;cablelength;;;;;;connection;direction;;features;;;;;;;;;;;;material;dimensions
;;;;;;;;;Radio;Radio;Radio;;Select;Radio;Select;Checkbox;;Select;Radio;Checkbox;;;Radio;Checkbox;;;Checkbox;;;Checkbox;;;;;;Select;Checkbox;;Checkbox;;;;;;;;;;;;Select;
;;;;;;;;;;;;;;;;Long body;Standard;;;NC;NO;NO+NC;;10 to 30 VDC;10 to 60 VDC;20 to 240 VAC;2-wire;3-wire;4-wire;0.3 m;1 m;2 m;2.5 m;3.5 m;5 m;;End face sensing;Front face sensing;AC power supply;Anti-microbial housing;ATEX 3D certified;Chemical resistant;EMC noise tested up to 100 V/m;Full stainless steel housing;High precision;High precision positioning;Increased frequency;Oil resistant;Self-diagnostic output function;Vehicle usage certified (e1);;
Catalog Item Code;Stat Code;Long Item Code;Short Item Code;OC Code;Second Item Code;Discount Family;Product Family;Related Products;Flag product as new;Flag product as stock;Hide this item in the selector;Product points to nested selector;Ask user to add this product to list before moving to subselect;Type;Size;Barrel length;;Sensing distance;Shielded;Operating mode;;;Output;Voltage;;;Wiring;;;Cable length;;;;;;Connection;Sensing direction;;Features;;;;;;;;;;;;Case material;Dimensions in mm (HxWxD)
